Time of Error: 27/08/2018 6:52 PM
URL: http://localhost:63896/Admin/WhatWeOfferInnerPages?CID=7&TID=1
Form: 
QueryString: CID=7&TID=1
Server Name: localhost
User Agent: Mozilla/5.0 (Windows NT 6.1; Win64; x64) AppleWebKit/537.36 (KHTML, like Gecko) Chrome/68.0.3440.106 Safari/537.36
User IP: ::1
User Host Name: ::1
Message: There is no row at position 0.
Source: System.Data
TargetSite: NodePath GetNodeByIndex(Int32)
StackTrace:    at System.Data.RBTree`1.GetNodeByIndex(Int32 userIndex)
   at System.Data.DataRowCollection.get_Item(Int32 index)
   at Alchemy.Controllers.AdminController.GetWhatWeOfferInnerPagesList(Nullable`1 CId, Nullable`1 TId) in D:\rahul\Alchemy\Alchemy\Project\Alchemy\MvcApplication1\Controllers\AdminController.cs:line 2093




Time of Error: 27/08/2018 6:53 PM
URL: http://localhost:63896/Admin/WhatWeOfferInnerPages?CID=7&TID=1
Form: 
QueryString: CID=7&TID=1
Server Name: localhost
User Agent: Mozilla/5.0 (Windows NT 6.1; Win64; x64) AppleWebKit/537.36 (KHTML, like Gecko) Chrome/68.0.3440.106 Safari/537.36
User IP: ::1
User Host Name: ::1
Message: There is no row at position 0.
Source: System.Data
TargetSite: NodePath GetNodeByIndex(Int32)
StackTrace:    at System.Data.RBTree`1.GetNodeByIndex(Int32 userIndex)
   at System.Data.DataRowCollection.get_Item(Int32 index)
   at Alchemy.Controllers.AdminController.GetWhatWeOfferInnerPagesList(Nullable`1 CId, Nullable`1 TId) in D:\rahul\Alchemy\Alchemy\Project\Alchemy\MvcApplication1\Controllers\AdminController.cs:line 2093




Time of Error: 27/08/2018 6:53 PM
URL: http://localhost:63896/Admin/WhatWeOfferInnerPages?CID=7&TID=1
Form: 
QueryString: CID=7&TID=1
Server Name: localhost
User Agent: Mozilla/5.0 (Windows NT 6.1; Win64; x64) AppleWebKit/537.36 (KHTML, like Gecko) Chrome/68.0.3440.106 Safari/537.36
User IP: ::1
User Host Name: ::1
Message: There is no row at position 0.
Source: System.Data
TargetSite: NodePath GetNodeByIndex(Int32)
StackTrace:    at System.Data.RBTree`1.GetNodeByIndex(Int32 userIndex)
   at System.Data.DataRowCollection.get_Item(Int32 index)
   at Alchemy.Controllers.AdminController.GetWhatWeOfferInnerPagesList(Nullable`1 CId, Nullable`1 TId) in D:\rahul\Alchemy\Alchemy\Project\Alchemy\MvcApplication1\Controllers\AdminController.cs:line 2093




