Time of Error: 08/04/18 1:13 PM
URL: http://localhost:63896/Admin/AddPatient
Form: 
QueryString: 
Server Name: localhost
User Agent: Mozilla/5.0 (Windows NT 6.3; Win64; x64) AppleWebKit/537.36 (KHTML, like Gecko) Chrome/68.0.3440.84 Safari/537.36
User IP: ::1
User Host Name: ::1
Message: Could not find stored procedure 'Proc_PatientRegistration'.
Source: .Net SqlClient Data Provider
TargetSite: Void OnError(System.Data.SqlClient.SqlException, Boolean, System.Action`1[System.Action])
StackTrace:    at System.Data.SqlClient.SqlConnection.OnError(SqlException exception, Boolean breakConnection, Action`1 wrapCloseInAction)
   at System.Data.SqlClient.SqlInternalConnection.OnError(SqlException exception, Boolean breakConnection, Action`1 wrapCloseInAction)
   at System.Data.SqlClient.TdsParser.ThrowExceptionAndWarning(TdsParserStateObject stateObj, Boolean callerHasConnectionLock, Boolean asyncClose)
   at System.Data.SqlClient.TdsParser.TryRun(RunBehavior runBehavior, SqlCommand cmdHandler, SqlDataReader dataStream, BulkCopySimpleResultSet bulkCopyHandler, TdsParserStateObject stateObj, Boolean& dataReady)
   at System.Data.SqlClient.SqlDataReader.TryConsumeMetaData()
   at System.Data.SqlClient.SqlDataReader.get_MetaData()
   at System.Data.SqlClient.SqlCommand.FinishExecuteReader(SqlDataReader ds, RunBehavior runBehavior, String resetOptionsString, Boolean isInternal, Boolean forDescribeParameterEncryption)
   at System.Data.SqlClient.SqlCommand.RunExecuteReaderTds(CommandBehavior cmdBehavior, RunBehavior runBehavior, Boolean returnStream, Boolean async, Int32 timeout, Task& task, Boolean asyncWrite, Boolean inRetry, SqlDataReader ds, Boolean describeParameterEncryptionRequest)
   at System.Data.SqlClient.SqlCommand.RunExecuteReader(CommandBehavior cmdBehavior, RunBehavior runBehavior, Boolean returnStream, String method, TaskCompletionSource`1 completion, Int32 timeout, Task& task, Boolean& usedCache, Boolean asyncWrite, Boolean inRetry)
   at System.Data.SqlClient.SqlCommand.RunExecuteReader(CommandBehavior cmdBehavior, RunBehavior runBehavior, Boolean returnStream, String method)
   at System.Data.SqlClient.SqlCommand.ExecuteReader(CommandBehavior behavior, String method)
   at System.Data.SqlClient.SqlCommand.ExecuteDbDataReader(CommandBehavior behavior)
   at System.Data.Common.DbCommand.System.Data.IDbCommand.ExecuteReader(CommandBehavior behavior)
   at System.Data.Common.DbDataAdapter.FillInternal(DataSet dataset, DataTable[] datatables, Int32 startRecord, Int32 maxRecords, String srcTable, IDbCommand command, CommandBehavior behavior)
   at System.Data.Common.DbDataAdapter.Fill(DataTable[] dataTables, Int32 startRecord, Int32 maxRecords, IDbCommand command, CommandBehavior behavior)
   at System.Data.Common.DbDataAdapter.Fill(DataTable dataTable)
   at Alchemy.Models.Utility.Display(String query) in D:\Arvind\Backup\Alchemy\MvcApplication1\Models\Utility.cs:line 83




Time of Error: 08/04/18 1:39 PM
URL: http://localhost:63896/Login/ForgotPassword
Form: 
QueryString: 
Server Name: localhost
User Agent: Mozilla/5.0 (Windows NT 6.3; Win64; x64) AppleWebKit/537.36 (KHTML, like Gecko) Chrome/68.0.3440.84 Safari/537.36
User IP: ::1
User Host Name: ::1
Message: Object reference not set to an instance of an object.
Source: Alchemy
TargetSite: Boolean SendEmail(System.String, System.String[], System.String)
StackTrace:    at Alchemy.Models.Utility.SendEmail(String Emailbody, String[] Toemailids, String Subject) in D:\Arvind\Backup\Alchemy\MvcApplication1\Models\Utility.cs:line 168




Time of Error: 08/04/18 1:39 PM
URL: http://localhost:63896/Login/ForgotPassword
Form: 
QueryString: 
Server Name: localhost
User Agent: Mozilla/5.0 (Windows NT 6.3; Win64; x64) AppleWebKit/537.36 (KHTML, like Gecko) Chrome/68.0.3440.84 Safari/537.36
User IP: ::1
User Host Name: ::1
Message: Object reference not set to an instance of an object.
Source: Alchemy
TargetSite: Boolean SendEmail(System.String, System.String[], System.String)
StackTrace:    at Alchemy.Models.Utility.SendEmail(String Emailbody, String[] Toemailids, String Subject) in D:\Arvind\Backup\Alchemy\MvcApplication1\Models\Utility.cs:line 168




Time of Error: 08/04/18 1:39 PM
URL: http://localhost:63896/Login/ForgotPassword
Form: 
QueryString: 
Server Name: localhost
User Agent: Mozilla/5.0 (Windows NT 6.3; Win64; x64) AppleWebKit/537.36 (KHTML, like Gecko) Chrome/68.0.3440.84 Safari/537.36
User IP: ::1
User Host Name: ::1
Message: Object reference not set to an instance of an object.
Source: Alchemy
TargetSite: Boolean SendEmail(System.String, System.String[], System.String)
StackTrace:    at Alchemy.Models.Utility.SendEmail(String Emailbody, String[] Toemailids, String Subject) in D:\Arvind\Backup\Alchemy\MvcApplication1\Models\Utility.cs:line 168




Time of Error: 08/04/18 1:39 PM
URL: http://localhost:63896/Login/ForgotPassword
Form: 
QueryString: 
Server Name: localhost
User Agent: Mozilla/5.0 (Windows NT 6.3; Win64; x64) AppleWebKit/537.36 (KHTML, like Gecko) Chrome/68.0.3440.84 Safari/537.36
User IP: ::1
User Host Name: ::1
Message: Object reference not set to an instance of an object.
Source: Alchemy
TargetSite: Boolean SendEmail(System.String, System.String[], System.String)
StackTrace:    at Alchemy.Models.Utility.SendEmail(String Emailbody, String[] Toemailids, String Subject) in D:\Arvind\Backup\Alchemy\MvcApplication1\Models\Utility.cs:line 168




Time of Error: 08/04/18 1:39 PM
URL: http://localhost:63896/Login/ForgotPassword
Form: 
QueryString: 
Server Name: localhost
User Agent: Mozilla/5.0 (Windows NT 6.3; Win64; x64) AppleWebKit/537.36 (KHTML, like Gecko) Chrome/68.0.3440.84 Safari/537.36
User IP: ::1
User Host Name: ::1
Message: Object reference not set to an instance of an object.
Source: Alchemy
TargetSite: Boolean SendEmail(System.String, System.String[], System.String)
StackTrace:    at Alchemy.Models.Utility.SendEmail(String Emailbody, String[] Toemailids, String Subject) in D:\Arvind\Backup\Alchemy\MvcApplication1\Models\Utility.cs:line 168




Time of Error: 08/04/18 2:40 PM
URL: http://localhost:63896/Admin/AddPatient
Form: 
QueryString: 
Server Name: localhost
User Agent: Mozilla/5.0 (Windows NT 6.3; Win64; x64) AppleWebKit/537.36 (KHTML, like Gecko) Chrome/68.0.3440.84 Safari/537.36
User IP: ::1
User Host Name: ::1
Message: Could not find stored procedure 'Proc_PatientRegistration'.
Source: .Net SqlClient Data Provider
TargetSite: Void OnError(System.Data.SqlClient.SqlException, Boolean, System.Action`1[System.Action])
StackTrace:    at System.Data.SqlClient.SqlConnection.OnError(SqlException exception, Boolean breakConnection, Action`1 wrapCloseInAction)
   at System.Data.SqlClient.SqlInternalConnection.OnError(SqlException exception, Boolean breakConnection, Action`1 wrapCloseInAction)
   at System.Data.SqlClient.TdsParser.ThrowExceptionAndWarning(TdsParserStateObject stateObj, Boolean callerHasConnectionLock, Boolean asyncClose)
   at System.Data.SqlClient.TdsParser.TryRun(RunBehavior runBehavior, SqlCommand cmdHandler, SqlDataReader dataStream, BulkCopySimpleResultSet bulkCopyHandler, TdsParserStateObject stateObj, Boolean& dataReady)
   at System.Data.SqlClient.SqlDataReader.TryConsumeMetaData()
   at System.Data.SqlClient.SqlDataReader.get_MetaData()
   at System.Data.SqlClient.SqlCommand.FinishExecuteReader(SqlDataReader ds, RunBehavior runBehavior, String resetOptionsString, Boolean isInternal, Boolean forDescribeParameterEncryption)
   at System.Data.SqlClient.SqlCommand.RunExecuteReaderTds(CommandBehavior cmdBehavior, RunBehavior runBehavior, Boolean returnStream, Boolean async, Int32 timeout, Task& task, Boolean asyncWrite, Boolean inRetry, SqlDataReader ds, Boolean describeParameterEncryptionRequest)
   at System.Data.SqlClient.SqlCommand.RunExecuteReader(CommandBehavior cmdBehavior, RunBehavior runBehavior, Boolean returnStream, String method, TaskCompletionSource`1 completion, Int32 timeout, Task& task, Boolean& usedCache, Boolean asyncWrite, Boolean inRetry)
   at System.Data.SqlClient.SqlCommand.RunExecuteReader(CommandBehavior cmdBehavior, RunBehavior runBehavior, Boolean returnStream, String method)
   at System.Data.SqlClient.SqlCommand.ExecuteReader(CommandBehavior behavior, String method)
   at System.Data.SqlClient.SqlCommand.ExecuteDbDataReader(CommandBehavior behavior)
   at System.Data.Common.DbCommand.System.Data.IDbCommand.ExecuteReader(CommandBehavior behavior)
   at System.Data.Common.DbDataAdapter.FillInternal(DataSet dataset, DataTable[] datatables, Int32 startRecord, Int32 maxRecords, String srcTable, IDbCommand command, CommandBehavior behavior)
   at System.Data.Common.DbDataAdapter.Fill(DataTable[] dataTables, Int32 startRecord, Int32 maxRecords, IDbCommand command, CommandBehavior behavior)
   at System.Data.Common.DbDataAdapter.Fill(DataTable dataTable)
   at Alchemy.Models.Utility.Display(String query) in D:\Arvind\Backup\Alchemy\MvcApplication1\Models\Utility.cs:line 83




Time of Error: 08/04/18 8:30 PM
URL: http://localhost:63896/Admin/CMSPage/1?PageId=0
Form: 
QueryString: PageId=0
Server Name: localhost
User Agent: Mozilla/5.0 (Windows NT 6.3; Win64; x64) AppleWebKit/537.36 (KHTML, like Gecko) Chrome/68.0.3440.84 Safari/537.36
User IP: ::1
User Host Name: ::1
Message: Column 'PageName' does not belong to table Table.
Source: System.Data
TargetSite: System.Data.DataColumn GetDataColumn(System.String)
StackTrace:    at System.Data.DataRow.GetDataColumn(String columnName)
   at System.Data.DataRow.get_Item(String columnName)
   at Alchemy.Controllers.AdminController.GetCMSPageList(Int32 Id) in D:\Arvind\Backup\Alchemy\MvcApplication1\Controllers\AdminController.cs:line 452




Time of Error: 08/04/18 8:31 PM
URL: http://localhost:63896/Admin/CMSPage/1
Form: 
QueryString: 
Server Name: localhost
User Agent: Mozilla/5.0 (Windows NT 6.3; Win64; x64) AppleWebKit/537.36 (KHTML, like Gecko) Chrome/68.0.3440.84 Safari/537.36
User IP: ::1
User Host Name: ::1
Message: Column 'PageName' does not belong to table Table.
Source: System.Data
TargetSite: System.Data.DataColumn GetDataColumn(System.String)
StackTrace:    at System.Data.DataRow.GetDataColumn(String columnName)
   at System.Data.DataRow.get_Item(String columnName)
   at Alchemy.Controllers.AdminController.GetCMSPageList(Int32 Id) in D:\Arvind\Backup\Alchemy\MvcApplication1\Controllers\AdminController.cs:line 452




Time of Error: 08/04/18 8:32 PM
URL: http://localhost:63896/Admin/CMSPage/1
Form: 
QueryString: 
Server Name: localhost
User Agent: Mozilla/5.0 (Windows NT 6.3; Win64; x64) AppleWebKit/537.36 (KHTML, like Gecko) Chrome/68.0.3440.84 Safari/537.36
User IP: ::1
User Host Name: ::1
Message: Column 'PageName' does not belong to table Table.
Source: System.Data
TargetSite: System.Data.DataColumn GetDataColumn(System.String)
StackTrace:    at System.Data.DataRow.GetDataColumn(String columnName)
   at System.Data.DataRow.get_Item(String columnName)
   at Alchemy.Controllers.AdminController.GetCMSPageList(Int32 Id) in D:\Arvind\Backup\Alchemy\MvcApplication1\Controllers\AdminController.cs:line 452




