Time of Error: 08/07/18 1:58 PM
URL: http://localhost:63896/Admin/ThoughtLeadership
Form: Heading=erwer&PostDate=14-08-2018&Description=qewqeq&btnAction=Submit
QueryString: 
Server Name: localhost
User Agent: Mozilla/5.0 (Windows NT 6.3; Win64; x64) AppleWebKit/537.36 (KHTML, like Gecko) Chrome/68.0.3440.84 Safari/537.36
User IP: ::1
User Host Name: ::1
Message: String was not recognized as a valid DateTime.
Source: mscorlib
TargetSite: System.DateTime Parse(System.String, System.Globalization.DateTimeFormatInfo, System.Globalization.DateTimeStyles)
StackTrace:    at System.DateTimeParse.Parse(String s, DateTimeFormatInfo dtfi, DateTimeStyles styles)
   at System.DateTime.Parse(String s)
   at Alchemy.Controllers.AdminController.SaveThoughtLeadership(ThoughtLeadership objThoughtLeadership) in D:\Arvind\Backup\Alchemy\MvcApplication1\Controllers\AdminController.cs:line 2054
   at Alchemy.Controllers.AdminController.ThoughtLeadership(ThoughtLeadership objThoughtLeadership, HttpPostedFileBase[] Image) in D:\Arvind\Backup\Alchemy\MvcApplication1\Controllers\AdminController.cs:line 1984




Time of Error: 08/07/18 2:02 PM
URL: http://localhost:63896/Admin/ThoughtLeadership
Form: 
QueryString: 
Server Name: localhost
User Agent: Mozilla/5.0 (Windows NT 6.3; Win64; x64) AppleWebKit/537.36 (KHTML, like Gecko) Chrome/68.0.3440.84 Safari/537.36
User IP: ::1
User Host Name: ::1
Message: Column 'Sr' does not belong to table .
Source: System.Data
TargetSite: System.Data.DataColumn GetDataColumn(System.String)
StackTrace:    at System.Data.DataRow.GetDataColumn(String columnName)
   at System.Data.DataRow.get_Item(String columnName)
   at Alchemy.Controllers.AdminController.GetThoughtLeadershipList() in D:\Arvind\Backup\Alchemy\MvcApplication1\Controllers\AdminController.cs:line 1905




Time of Error: 08/07/18 2:02 PM
URL: http://localhost:63896/Admin/ThoughtLeadership
Form: 
QueryString: 
Server Name: localhost
User Agent: Mozilla/5.0 (Windows NT 6.3; Win64; x64) AppleWebKit/537.36 (KHTML, like Gecko) Chrome/68.0.3440.84 Safari/537.36
User IP: ::1
User Host Name: ::1
Message: Column 'Sr' does not belong to table .
Source: System.Data
TargetSite: System.Data.DataColumn GetDataColumn(System.String)
StackTrace:    at System.Data.DataRow.GetDataColumn(String columnName)
   at System.Data.DataRow.get_Item(String columnName)
   at Alchemy.Controllers.AdminController.GetThoughtLeadershipList() in D:\Arvind\Backup\Alchemy\MvcApplication1\Controllers\AdminController.cs:line 1905




Time of Error: 08/07/18 2:02 PM
URL: http://localhost:63896/Admin/ThoughtLeadership
Form: 
QueryString: 
Server Name: localhost
User Agent: Mozilla/5.0 (Windows NT 6.3; Win64; x64) AppleWebKit/537.36 (KHTML, like Gecko) Chrome/68.0.3440.84 Safari/537.36
User IP: ::1
User Host Name: ::1
Message: Column 'Sr' does not belong to table .
Source: System.Data
TargetSite: System.Data.DataColumn GetDataColumn(System.String)
StackTrace:    at System.Data.DataRow.GetDataColumn(String columnName)
   at System.Data.DataRow.get_Item(String columnName)
   at Alchemy.Controllers.AdminController.GetThoughtLeadershipList() in D:\Arvind\Backup\Alchemy\MvcApplication1\Controllers\AdminController.cs:line 1905




Time of Error: 08/07/18 2:11 PM
URL: http://localhost:63896/Admin/ThoughtLeadership
Form: Heading=heading1&PostDate=15-08-2018&Description=deee1&btnAction=Update&ThoughtId=1&imgPreview=ThoughtLeadership-7c1f6e3f-3e3c-496e-b620-d324ce7d34df.png
QueryString: 
Server Name: localhost
User Agent: Mozilla/5.0 (Windows NT 6.3; Win64; x64) AppleWebKit/537.36 (KHTML, like Gecko) Chrome/68.0.3440.84 Safari/537.36
User IP: ::1
User Host Name: ::1
Message: @PageId is not a parameter for procedure Proc_ThoughtLeadership.
Source: .Net SqlClient Data Provider
TargetSite: Void OnError(System.Data.SqlClient.SqlException, Boolean, System.Action`1[System.Action])
StackTrace:    at System.Data.SqlClient.SqlConnection.OnError(SqlException exception, Boolean breakConnection, Action`1 wrapCloseInAction)
   at System.Data.SqlClient.SqlInternalConnection.OnError(SqlException exception, Boolean breakConnection, Action`1 wrapCloseInAction)
   at System.Data.SqlClient.TdsParser.ThrowExceptionAndWarning(TdsParserStateObject stateObj, Boolean callerHasConnectionLock, Boolean asyncClose)
   at System.Data.SqlClient.TdsParser.TryRun(RunBehavior runBehavior, SqlCommand cmdHandler, SqlDataReader dataStream, BulkCopySimpleResultSet bulkCopyHandler, TdsParserStateObject stateObj, Boolean& dataReady)
   at System.Data.SqlClient.SqlCommand.FinishExecuteReader(SqlDataReader ds, RunBehavior runBehavior, String resetOptionsString, Boolean isInternal, Boolean forDescribeParameterEncryption)
   at System.Data.SqlClient.SqlCommand.RunExecuteReaderTds(CommandBehavior cmdBehavior, RunBehavior runBehavior, Boolean returnStream, Boolean async, Int32 timeout, Task& task, Boolean asyncWrite, Boolean inRetry, SqlDataReader ds, Boolean describeParameterEncryptionRequest)
   at System.Data.SqlClient.SqlCommand.RunExecuteReader(CommandBehavior cmdBehavior, RunBehavior runBehavior, Boolean returnStream, String method, TaskCompletionSource`1 completion, Int32 timeout, Task& task, Boolean& usedCache, Boolean asyncWrite, Boolean inRetry)
   at System.Data.SqlClient.SqlCommand.InternalExecuteNonQuery(TaskCompletionSource`1 completion, String methodName, Boolean sendToPipe, Int32 timeout, Boolean& usedCache, Boolean asyncWrite, Boolean inRetry)
   at System.Data.SqlClient.SqlCommand.ExecuteNonQuery()
   at Alchemy.Models.Utility.Execute(SqlCommand cmd) in D:\Arvind\Backup\Alchemy\MvcApplication1\Models\Utility.cs:line 28




Time of Error: 08/07/18 4:50 PM
URL: http://localhost:63896/Admin/MediaCenterPage/1
Form: 
QueryString: 
Server Name: localhost
User Agent: Mozilla/5.0 (Windows NT 6.3; Win64; x64) AppleWebKit/537.36 (KHTML, like Gecko) Chrome/68.0.3440.84 Safari/537.36
User IP: ::1
User Host Name: ::1
Message: There is no row at position 0.
Source: System.Data
TargetSite: NodePath GetNodeByIndex(Int32)
StackTrace:    at System.Data.RBTree`1.GetNodeByIndex(Int32 userIndex)
   at System.Data.DataRowCollection.get_Item(Int32 index)
   at Alchemy.Controllers.AdminController.GetInsightsList(Nullable`1 Id) in D:\Arvind\Backup\Alchemy\MvcApplication1\Controllers\AdminController.cs:line 2455




Time of Error: 08/07/18 4:51 PM
URL: http://localhost:63896/Admin/MediaCenterPage/1
Form: 
QueryString: 
Server Name: localhost
User Agent: Mozilla/5.0 (Windows NT 6.3; Win64; x64) AppleWebKit/537.36 (KHTML, like Gecko) Chrome/68.0.3440.84 Safari/537.36
User IP: ::1
User Host Name: ::1
Message: There is no row at position 0.
Source: System.Data
TargetSite: NodePath GetNodeByIndex(Int32)
StackTrace:    at System.Data.RBTree`1.GetNodeByIndex(Int32 userIndex)
   at System.Data.DataRowCollection.get_Item(Int32 index)
   at Alchemy.Controllers.AdminController.GetInsightsList(Nullable`1 Id) in D:\Arvind\Backup\Alchemy\MvcApplication1\Controllers\AdminController.cs:line 2455




Time of Error: 08/07/18 4:52 PM
URL: http://localhost:63896/Admin/MediaCenterPage/1
Form: 
QueryString: 
Server Name: localhost
User Agent: Mozilla/5.0 (Windows NT 6.3; Win64; x64) AppleWebKit/537.36 (KHTML, like Gecko) Chrome/68.0.3440.84 Safari/537.36
User IP: ::1
User Host Name: ::1
Message: There is no row at position 0.
Source: System.Data
TargetSite: NodePath GetNodeByIndex(Int32)
StackTrace:    at System.Data.RBTree`1.GetNodeByIndex(Int32 userIndex)
   at System.Data.DataRowCollection.get_Item(Int32 index)
   at Alchemy.Controllers.AdminController.GetInsightsList(Nullable`1 Id) in D:\Arvind\Backup\Alchemy\MvcApplication1\Controllers\AdminController.cs:line 2455




Time of Error: 08/07/18 4:53 PM
URL: http://localhost:63896/Admin/MediaCenterPage/1
Form: 
QueryString: 
Server Name: localhost
User Agent: Mozilla/5.0 (Windows NT 6.3; Win64; x64) AppleWebKit/537.36 (KHTML, like Gecko) Chrome/68.0.3440.84 Safari/537.36
User IP: ::1
User Host Name: ::1
Message: There is no row at position 0.
Source: System.Data
TargetSite: NodePath GetNodeByIndex(Int32)
StackTrace:    at System.Data.RBTree`1.GetNodeByIndex(Int32 userIndex)
   at System.Data.DataRowCollection.get_Item(Int32 index)
   at Alchemy.Controllers.AdminController.GetInsightsList(Nullable`1 Id) in D:\Arvind\Backup\Alchemy\MvcApplication1\Controllers\AdminController.cs:line 2455




Time of Error: 08/07/18 4:59 PM
URL: http://localhost:63896/Admin/MediaCenterPage/1
Form: 
QueryString: 
Server Name: localhost
User Agent: Mozilla/5.0 (Windows NT 6.3; Win64; x64) AppleWebKit/537.36 (KHTML, like Gecko) Chrome/68.0.3440.84 Safari/537.36
User IP: ::1
User Host Name: ::1
Message: There is no row at position 0.
Source: System.Data
TargetSite: NodePath GetNodeByIndex(Int32)
StackTrace:    at System.Data.RBTree`1.GetNodeByIndex(Int32 userIndex)
   at System.Data.DataRowCollection.get_Item(Int32 index)
   at Alchemy.Controllers.AdminController.GetInsightsList(Nullable`1 Id) in D:\Arvind\Backup\Alchemy\MvcApplication1\Controllers\AdminController.cs:line 2455




