Time of Error: 11/17/2018 2:46 AM
URL: http://kwebmakerusa.com/alchemyproject/Admin/ContactUs
Form: 
QueryString: 
Server Name: kwebmakerusa.com
User Agent: Mozilla/5.0 (Windows NT 6.1; Win64; x64) AppleWebKit/537.36 (KHTML, like Gecko) Chrome/70.0.3538.102 Safari/537.36
User IP: 116.72.136.133
User Host Name: 116.72.136.133
Message: Column 'ApplyDate' does not belong to table Table.
Source: System.Data
TargetSite: System.Data.DataColumn GetDataColumn(System.String)
StackTrace:    at System.Data.DataRow.GetDataColumn(String columnName)
   at System.Data.DataRow.get_Item(String columnName)
   at Alchemy.Controllers.AdminController.GetContactUsList() in D:\rahul\Alchemy\Alchemy\Project\Alchemy\MvcApplication1\Controllers\AdminController.cs:line 4357




Time of Error: 11/17/2018 2:46 AM
URL: http://kwebmakerusa.com/alchemyproject/Admin/ContactUs
Form: 
QueryString: 
Server Name: kwebmakerusa.com
User Agent: Mozilla/5.0 (Windows NT 6.1; Win64; x64) AppleWebKit/537.36 (KHTML, like Gecko) Chrome/70.0.3538.102 Safari/537.36
User IP: 116.72.136.133
User Host Name: 116.72.136.133
Message: Column 'ApplyDate' does not belong to table Table.
Source: System.Data
TargetSite: System.Data.DataColumn GetDataColumn(System.String)
StackTrace:    at System.Data.DataRow.GetDataColumn(String columnName)
   at System.Data.DataRow.get_Item(String columnName)
   at Alchemy.Controllers.AdminController.GetContactUsList() in D:\rahul\Alchemy\Alchemy\Project\Alchemy\MvcApplication1\Controllers\AdminController.cs:line 4357




Time of Error: 11/17/2018 2:46 AM
URL: http://kwebmakerusa.com/alchemyproject/Admin/ContactUs
Form: 
QueryString: 
Server Name: kwebmakerusa.com
User Agent: Mozilla/5.0 (Windows NT 6.1; Win64; x64) AppleWebKit/537.36 (KHTML, like Gecko) Chrome/70.0.3538.102 Safari/537.36
User IP: 116.72.136.133
User Host Name: 116.72.136.133
Message: Column 'ApplyDate' does not belong to table Table.
Source: System.Data
TargetSite: System.Data.DataColumn GetDataColumn(System.String)
StackTrace:    at System.Data.DataRow.GetDataColumn(String columnName)
   at System.Data.DataRow.get_Item(String columnName)
   at Alchemy.Controllers.AdminController.GetContactUsList() in D:\rahul\Alchemy\Alchemy\Project\Alchemy\MvcApplication1\Controllers\AdminController.cs:line 4357




