Time of Error: 08/10/18 3:00 PM
URL: http://localhost:63896/Career
Form: FullName=Arvind+Ambedkar&Email=arvind%40gmail.com&Role=Operations&ContactNo=9967873686
QueryString: 
Server Name: localhost
User Agent: Mozilla/5.0 (Windows NT 6.3; Win64; x64) AppleWebKit/537.36 (KHTML, like Gecko) Chrome/68.0.3440.84 Safari/537.36
User IP: ::1
User Host Name: ::1
Message: Could not find file 'C:\Program Files (x86)\IIS Express\Resume-439d525c-a678-4d7a-9aeb-eb5fb729def4.docx'.
Source: mscorlib
TargetSite: Void WinIOError(Int32, System.String)
StackTrace:    at System.IO.__Error.WinIOError(Int32 errorCode, String maybeFullPath)
   at System.IO.FileStream.Init(String path, FileMode mode, FileAccess access, Int32 rights, Boolean useRights, FileShare share, Int32 bufferSize, FileOptions options, SECURITY_ATTRIBUTES secAttrs, String msgPath, Boolean bFromProxy, Boolean useLongPath, Boolean checkHost)
   at System.IO.FileStream..ctor(String path, FileMode mode, FileAccess access, FileShare share)
   at System.Net.Mail.AttachmentBase.SetContentFromFile(String fileName, String mediaType)
   at System.Net.Mail.AttachmentBase..ctor(String fileName)
   at System.Net.Mail.Attachment..ctor(String fileName)
   at Alchemy.Models.Utility.SendEmail(String Emailbody, String[] Toemailids, String Subject, String FilePath) in D:\Arvind\Backup\Alchemy\MvcApplication1\Models\Utility.cs:line 202




Time of Error: 08/10/18 4:10 PM
URL: http://localhost:63896/Career
Form: FullName=asfd&Email=sdf%40sdf.sdf&Role=Client+Servicing&ContactNo=3434343434
QueryString: 
Server Name: localhost
User Agent: Mozilla/5.0 (Windows NT 6.3; Win64; x64) AppleWebKit/537.36 (KHTML, like Gecko) Chrome/68.0.3440.84 Safari/537.36
User IP: ::1
User Host Name: ::1
Message: Could not find file 'C:\Program Files (x86)\IIS Express\Resume-395e22d6-bc84-4f01-878a-7ab26bd5c61a.docx'.
Source: mscorlib
TargetSite: Void WinIOError(Int32, System.String)
StackTrace:    at System.IO.__Error.WinIOError(Int32 errorCode, String maybeFullPath)
   at System.IO.FileStream.Init(String path, FileMode mode, FileAccess access, Int32 rights, Boolean useRights, FileShare share, Int32 bufferSize, FileOptions options, SECURITY_ATTRIBUTES secAttrs, String msgPath, Boolean bFromProxy, Boolean useLongPath, Boolean checkHost)
   at System.IO.FileStream..ctor(String path, FileMode mode, FileAccess access, FileShare share)
   at System.Net.Mail.AttachmentBase.SetContentFromFile(String fileName, String mediaType)
   at System.Net.Mail.AttachmentBase..ctor(String fileName)
   at System.Net.Mail.Attachment..ctor(String fileName)
   at Alchemy.Models.Utility.SendEmail(String Emailbody, String[] Toemailids, String Subject, String FilePath) in D:\Arvind\Backup\Alchemy\MvcApplication1\Models\Utility.cs:line 202




Time of Error: 08/10/18 4:24 PM
URL: http://localhost:63896/Career
Form: FullName=safdq&Email=fds%40fds.sfd&Role=Client+Servicing&ContactNo=6565656565&fakePath=C%3a%5cfakepath%5cour+project.docx
QueryString: 
Server Name: localhost
User Agent: Mozilla/5.0 (Windows NT 6.3; Win64; x64) AppleWebKit/537.36 (KHTML, like Gecko) Chrome/68.0.3440.84 Safari/537.36
User IP: ::1
User Host Name: ::1
Message: Could not find a part of the path 'our project.docx'.
Source: mscorlib
TargetSite: Void WinIOError(Int32, System.String)
StackTrace:    at System.IO.__Error.WinIOError(Int32 errorCode, String maybeFullPath)
   at System.IO.FileStream.Init(String path, FileMode mode, FileAccess access, Int32 rights, Boolean useRights, FileShare share, Int32 bufferSize, FileOptions options, SECURITY_ATTRIBUTES secAttrs, String msgPath, Boolean bFromProxy, Boolean useLongPath, Boolean checkHost)
   at System.IO.FileStream..ctor(String path, FileMode mode, FileAccess access, FileShare share)
   at System.Net.Mail.AttachmentBase.SetContentFromFile(String fileName, String mediaType)
   at System.Net.Mail.AttachmentBase..ctor(String fileName)
   at System.Net.Mail.Attachment..ctor(String fileName)
   at Alchemy.Models.Utility.SendEmail(String Emailbody, String[] Toemailids, String Subject, String FilePath) in D:\Arvind\Backup\Alchemy\MvcApplication1\Models\Utility.cs:line 202




Time of Error: 08/10/18 4:34 PM
URL: http://localhost:63896/Career
Form: FullName=sdfdsf&Email=sdf%40dsf.sfd&Role=Client+Servicing&ContactNo=6565656565&fakePath=C%3a%5cfakepath%5cour+project.docx
QueryString: 
Server Name: localhost
User Agent: Mozilla/5.0 (Windows NT 6.3; Win64; x64) AppleWebKit/537.36 (KHTML, like Gecko) Chrome/68.0.3440.84 Safari/537.36
User IP: ::1
User Host Name: ::1
Message: Could not find a part of the path 'C:\Program Files (x86)\IIS Express\~\Content\uploads\Resume\Resume-fb4ed814-a7fc-4b23-b9ab-1d93a509d8e9.docx'.
Source: mscorlib
TargetSite: Void WinIOError(Int32, System.String)
StackTrace:    at System.IO.__Error.WinIOError(Int32 errorCode, String maybeFullPath)
   at System.IO.FileStream.Init(String path, FileMode mode, FileAccess access, Int32 rights, Boolean useRights, FileShare share, Int32 bufferSize, FileOptions options, SECURITY_ATTRIBUTES secAttrs, String msgPath, Boolean bFromProxy, Boolean useLongPath, Boolean checkHost)
   at System.IO.FileStream..ctor(String path, FileMode mode, FileAccess access, FileShare share)
   at System.Net.Mail.AttachmentBase.SetContentFromFile(String fileName, String mediaType)
   at System.Net.Mail.AttachmentBase..ctor(String fileName)
   at System.Net.Mail.Attachment..ctor(String fileName)
   at Alchemy.Models.Utility.SendEmail(String Emailbody, String[] Toemailids, String Subject, String FilePath) in D:\Arvind\Backup\Alchemy\MvcApplication1\Models\Utility.cs:line 202




Time of Error: 8/10/2018 8:12 PM
URL: http://kwebmakerusa.com/alchemyproject/Career
Form: FullName=fff&Email=fff%40gmail.com&Role=Client+Servicing&ContactNo=8767676767&fakePath=C%3a%5cfakepath%5cour+project.docx
QueryString: 
Server Name: kwebmakerusa.com
User Agent: Mozilla/5.0 (Windows NT 6.3; Win64; x64) AppleWebKit/537.36 (KHTML, like Gecko) Chrome/68.0.3440.84 Safari/537.36
User IP: 49.32.178.206
User Host Name: 49.32.178.206
Message: The SMTP server requires a secure connection or the client was not authenticated. The server response was: authentication required
Source: System
TargetSite: Void CheckResponse(System.Net.Mail.SmtpStatusCode, System.String)
StackTrace:    at System.Net.Mail.MailCommand.CheckResponse(SmtpStatusCode statusCode, String response)
   at System.Net.Mail.MailCommand.Send(SmtpConnection conn, Byte[] command, MailAddress from, Boolean allowUnicode)
   at System.Net.Mail.SmtpTransport.SendMail(MailAddress sender, MailAddressCollection recipients, String deliveryNotify, Boolean allowUnicode, SmtpFailedRecipientException& exception)
   at System.Net.Mail.SmtpClient.Send(MailMessage message)
   at Alchemy.Models.Utility.SendEmail(String Emailbody, String[] Toemailids, String Subject, String FilePath) in D:\Arvind\Backup\Alchemy\MvcApplication1\Models\Utility.cs:line 219




Time of Error: 8/10/2018 8:31 PM
URL: http://kwebmakerusa.com/alchemyproject/Career
Form: FullName=Arvind+Ambedkar&Email=arvind%40gmail.com&Role=Operations&ContactNo=9988776655&fakePath=C%3a%5cfakepath%5cour+project.docx
QueryString: 
Server Name: kwebmakerusa.com
User Agent: Mozilla/5.0 (Windows NT 6.3; Win64; x64) AppleWebKit/537.36 (KHTML, like Gecko) Chrome/68.0.3440.84 Safari/537.36
User IP: 49.32.178.206
User Host Name: 49.32.178.206
Message: The SMTP server requires a secure connection or the client was not authenticated. The server response was: authentication required
Source: System
TargetSite: Void CheckResponse(System.Net.Mail.SmtpStatusCode, System.String)
StackTrace:    at System.Net.Mail.MailCommand.CheckResponse(SmtpStatusCode statusCode, String response)
   at System.Net.Mail.MailCommand.Send(SmtpConnection conn, Byte[] command, MailAddress from, Boolean allowUnicode)
   at System.Net.Mail.SmtpTransport.SendMail(MailAddress sender, MailAddressCollection recipients, String deliveryNotify, Boolean allowUnicode, SmtpFailedRecipientException& exception)
   at System.Net.Mail.SmtpClient.Send(MailMessage message)
   at Alchemy.Models.Utility.SendEmail(String Emailbody, String[] Toemailids, String Subject, String FilePath) in D:\Arvind\Backup\Alchemy\MvcApplication1\Models\Utility.cs:line 219




